module gitlab.com/rakhimovsh/simple-golang

go 1.19

require github.com/go-chi/chi/v5 v5.0.8

require (
	github.com/alexedwards/scs/v2 v2.5.0 // indirect
	github.com/justinas/nosurf v1.1.1 // indirect
)
